{"data":[{"id":1,"agent_key":"5b5dd029855a4a3379a5f0d1d9c7c90a","scheduler_id":2,"artifact_id":6,"name":"Eveniet sed quasi.","description":"RABBIT' engraved upon it. She felt very curious sensation, which puzzled her very much pleased at.","status":"Scheduled","deleted_at":null,"created_at":"2016-08-12 03:20:41","updated_at":"2016-08-12 03:20:41","artifact":{"id":6,"url":"http:\/\/local.api.cronman.esg.zone\/api\/job\/6","version":"6","manifest":"","shellscript":"\n                     echo \"Hello World\"\n                 ","deleted_at":null},"scheduler":{"id":2,"starts_at":826319809,"ends_at":378906060,"repeat_count":2,"repeat_interval":6,"repeat_unit":"h","deleted_at":null}},{"id":2,"agent_key":"3b3ed578d6a0b7f45f0f6c1c5a7640fd","scheduler_id":3,"artifact_id":6,"name":"Officia aliquid id.","description":"Dormouse shook itself, and was surprised to see you again, you dear old thing!' said Alice,.","status":"Scheduled","deleted_at":null,"created_at":"2016-08-12 03:20:41","updated_at":"2016-08-12 03:20:41","artifact":{"id":6,"url":"http:\/\/local.api.cronman.esg.zone\/api\/job\/6","version":"6","manifest":"","shellscript":"\n                     echo \"Hello World\"\n                 ","deleted_at":null},"scheduler":{"id":3,"starts_at":443191691,"ends_at":824328307,"repeat_count":3,"repeat_interval":3,"repeat_unit":"m","deleted_at":null}},{"id":3,"agent_key":"4cf68adc5f504b482131c8252f4004e9","scheduler_id":6,"artifact_id":9,"name":"Voluptate et.","description":"Queen?' said the Duchess; 'and most of 'em do.' 'I don't think they play at all the first day,'.","status":"Scheduled","deleted_at":null,"created_at":"2016-08-12 03:20:41","updated_at":"2016-08-12 03:20:41","artifact":{"id":9,"url":"http:\/\/local.api.cronman.esg.zone\/api\/job\/9","version":"2","manifest":"","shellscript":"\n                     echo \"Hello World\"\n                 ","deleted_at":null},"scheduler":{"id":6,"starts_at":200993424,"ends_at":692825641,"repeat_count":9,"repeat_interval":3,"repeat_unit":"h","deleted_at":null}},{"id":4,"agent_key":"12f5be32c0f2b30767f25dd40a02cd96","scheduler_id":10,"artifact_id":1,"name":"Ipsam earum quia.","description":"EVEN finish, if he had to sing \"Twinkle, twinkle, little bat! How I wonder who will put on one.","status":"Ready","deleted_at":null,"created_at":"2016-08-12 03:20:41","updated_at":"2016-08-12 03:20:41","artifact":{"id":1,"url":"http:\/\/local.api.cronman.esg.zone\/api\/job\/1","version":"7","manifest":"","shellscript":"\n                     echo \"Hello World\"\n                 ","deleted_at":null},"scheduler":{"id":10,"starts_at":847424461,"ends_at":382617037,"repeat_count":1,"repeat_interval":0,"repeat_unit":"m","deleted_at":null}},{"id":5,"agent_key":"41f4efca29c1d55fa47b096725371954","scheduler_id":6,"artifact_id":9,"name":"Eos recusandae est.","description":"King had said that day. 'A likely story indeed!' said the Gryphon. 'We can do without lobsters,.","status":"Scheduled","deleted_at":null,"created_at":"2016-08-12 03:20:41","updated_at":"2016-08-12 03:20:41","artifact":{"id":9,"url":"http:\/\/local.api.cronman.esg.zone\/api\/job\/9","version":"2","manifest":"","shellscript":"\n                     echo \"Hello World\"\n                 ","deleted_at":null},"scheduler":{"id":6,"starts_at":200993424,"ends_at":692825641,"repeat_count":9,"repeat_interval":3,"repeat_unit":"h","deleted_at":null}},{"id":6,"agent_key":"5a6aabbce869a75a23fef366ba034595","scheduler_id":10,"artifact_id":3,"name":"Dicta rerum magni.","description":"There was no use in saying anything more till the eyes appeared, and then unrolled the parchment.","status":"Scheduled","deleted_at":null,"created_at":"2016-08-12 03:20:41","updated_at":"2016-08-12 03:20:41","artifact":{"id":3,"url":"http:\/\/local.api.cronman.esg.zone\/api\/job\/3","version":"5","manifest":"","shellscript":"\n                     echo \"Hello World\"\n                 ","deleted_at":null},"scheduler":{"id":10,"starts_at":847424461,"ends_at":382617037,"repeat_count":1,"repeat_interval":0,"repeat_unit":"m","deleted_at":null}},{"id":7,"agent_key":"d408b65315a18091fb1da963a8ead9f0","scheduler_id":9,"artifact_id":1,"name":"Sit dignissimos.","description":"I'm here! Digging for apples, yer honour!' (He pronounced it 'arrum.') 'An arm, you goose! Who.","status":"Scheduled","deleted_at":null,"created_at":"2016-08-12 03:20:41","updated_at":"2016-08-12 03:20:41","artifact":{"id":1,"url":"http:\/\/local.api.cronman.esg.zone\/api\/job\/1","version":"7","manifest":"","shellscript":"\n                     echo \"Hello World\"\n                 ","deleted_at":null},"scheduler":{"id":9,"starts_at":50444869,"ends_at":731894427,"repeat_count":0,"repeat_interval":3,"repeat_unit":"h","deleted_at":null}},{"id":8,"agent_key":"783603ccb8713ee25cfe19ba2d2fd8bb","scheduler_id":3,"artifact_id":8,"name":"Voluptatem aliquam.","description":"I suppose Dinah'll be sending me on messages next!' And she tried to say a word, but slowly.","status":"Scheduled","deleted_at":null,"created_at":"2016-08-12 03:20:41","updated_at":"2016-08-12 03:20:41","artifact":{"id":8,"url":"http:\/\/local.api.cronman.esg.zone\/api\/job\/8","version":"9","manifest":"","shellscript":"\n                     echo \"Hello World\"\n                 ","deleted_at":null},"scheduler":{"id":3,"starts_at":443191691,"ends_at":824328307,"repeat_count":3,"repeat_interval":3,"repeat_unit":"m","deleted_at":null}},{"id":9,"agent_key":"2df4ab75c1669cb46b3bed2b38ef4705","scheduler_id":1,"artifact_id":8,"name":"Pariatur voluptatem.","description":"White Rabbit interrupted: 'UNimportant, your Majesty means, of course,' the Dodo had paused as if.","status":"Ready","deleted_at":null,"created_at":"2016-08-12 03:20:41","updated_at":"2016-08-12 03:20:41","artifact":{"id":8,"url":"http:\/\/local.api.cronman.esg.zone\/api\/job\/8","version":"9","manifest":"","shellscript":"\n                     echo \"Hello World\"\n                 ","deleted_at":null},"scheduler":{"id":1,"starts_at":793586256,"ends_at":1142004041,"repeat_count":5,"repeat_interval":4,"repeat_unit":"s","deleted_at":null}},{"id":10,"agent_key":"59e50ca2027a1fde81d549fde4f56b0f","scheduler_id":5,"artifact_id":4,"name":"Repellat eos eos.","description":"Alice; 'and I wish I hadn't cried so much!' said Alice, swallowing down her flamingo, and began to.","status":"Scheduled","deleted_at":null,"created_at":"2016-08-12 03:20:41","updated_at":"2016-08-12 03:20:41","artifact":{"id":4,"url":"http:\/\/local.api.cronman.esg.zone\/api\/job\/4","version":"7","manifest":"","shellscript":"\n                     echo \"Hello World\"\n                 ","deleted_at":null},"scheduler":{"id":5,"starts_at":787795078,"ends_at":360884742,"repeat_count":5,"repeat_interval":8,"repeat_unit":"s","deleted_at":null}}],"meta":{"pagination":{"total":31,"count":10,"per_page":10,"current_page":1,"total_pages":4,"links":{"next":"http:\/\/local.api.dev\/jobs?include=artifact%3Bscheduler&page=2"}},"queries":{"count":4,"time":4.12,"log":[{"query":"select count(*) as aggregate from `job` where `job`.`deleted_at` is null","time":12.2},{"query":"select * from `job` where `job`.`deleted_at` is null limit 10 offset 0","time":0.7},{"query":"select * from `job_artifact` where `job_artifact`.`id` in (6, 9, 1, 3, 8, 4)","time":0.68},{"query":"select * from `job_scheduler` where `job_scheduler`.`id` in (2, 3, 6, 10, 9, 1, 5) and `job_scheduler`.`deleted_at` is null","time":4.12}]}}}